%YAML 1.1
%TAG !u! tag:unity3d.com,2011:
--- !u!1045 &1
EditorBuildSettings:
  m_ObjectHideFlags: 0
  serializedVersion: 2
  m_Scenes:
  - enabled: 1
    path: Assets/Scenes/MainMenu.unity
    guid: d4b2072fadd14481eba4fe73420ab953
  - enabled: 1
    path: Assets/Scenes/BasicLevel.unity
    guid: 9fc0d4010bbf28b4594072e72b8655ab
  - enabled: 1
    path: Assets/Scenes/TestCube.unity
    guid: 40344f70aa30242acb7a78ef24c4e7d4
  - enabled: 1
    path: Assets/Scenes/TestSphere.unity
    guid: ccb25f76a802f4dc49b51d444ae74c57
  m_configObjects: {}
